5. RLC Dominio Tempo/ALL0000/F0000CH1.CSV

Record Length,2.500000e+03,,  -0.000009600000, -24.80000,
Sample Interval,4.000000e-08,,  -0.000009560000, -24.80000,
Trigger Point,2.400000000000e+02,,  -0.000009520000, -24.80000,
,,,  -0.000009480000, -24.80000,
,,,  -0.000009440000, -24.80000,
,,,  -0.000009400000, -24.80000,
Source,CH1,,  -0.000009360000, -24.80000,
Vertical Units,V,,  -0.000009320000, -24.80000,
Vertical Scale,2.000000e+01,,  -0.000009280000, -24.80000,
Vertical Offset,0.000000e+00,,  -0.000009240000, -24.80000,
Horizontal Units,s,,  -0.000009200000, -24.80000,
Horizontal Scale,1.000000e-05,,  -0.000009160000, -24.80000,
Pt Fmt,Y,,  -0.000009120000, -24.80000,
Yzero,0.000000e+00,,  -0.000009080000, -24.80000,
Probe Atten,1.000000e+01,,  -0.000009040000, -24.80000,
Model Number,TBS1102B-EDU,,  -0.000009000000, -24.80000,
Serial Number,C021597,,  -0.000008960000, -24.80000,
Firmware Version,FV:v4.06,,  -0.000008920000, -24.80000,
,,,-00.000008880000, -24.80000,
,,,-00.000008840000, -24.80000,
,,,-00.000008800000, -24.80000,
,,,-00.000008760000, -24.80000,
,,,-00.000008720000, -24.80000,
,,,-00.000008680000, -24.80000,
,,,-00.000008640000, -24.80000,
,,,-00.000008600000, -24.80000,
,,,-00.000008560000, -24.80000,
,,,-00.000008520000, -24.80000,
,,,-00.000008480000, -24.80000,
,,,-00.000008440000, -24.80000,
,,,-00.000008400000, -24.80000,
,,,-00.000008360000, -24.80000,
,,,-00.000008320000, -24.80000,
,,,-00.000008280000, -24.80000,
,,,-00.000008240000, -24.80000,
,,,-00.000008200000, -24.80000,
,,,-00.000008160000, -24.80000,
,,,-00.000008120000, -24.80000,
,,,-00.000008080000, -24.80000,
,,,-00.000008040000, -24.80000,
,,,-00.000008000000, -24.80000,
,,,-00.000007960000, -24.80000,
,,,-00.000007920000, -24.80000,
,,,-00.000007880000, -24.80000,
,,,-00.000007840000, -24.80000,
,,,-00.000007800000, -24.80000,
,,,-00.000007760000, -24.80000,
,,,-00.000007720000, -24.80000,
,,,-00.000007680000, -24.80000,
,,,-00.000007640000, -24.80000,
,,,-00.000007600000, -24.80000,
,,,-00.000007560000, -24.80000,
,,,-00.000007520000, -24.80000,
,,,-00.000007480000, -24.80000,
,,,-00.000007440000, -24.80000,
,,,-00.000007400000, -24.80000,
,,,-00.000007360000, -24.80000,
,,,-00.000007320000, -24.80000,
,,,-00.000007280000, -24.80000,
,,,-00.000007240000, -24.80000,
,,,-00.000007200000, -24.80000,
,,,-00.000007160000, -24.80000,
,,,-00.000007120000, -24.80000,
,,,-00.000007080000, -24.80000,
,,,-00.000007040000, -24.80000,
,,,-00.000007000000, -24.80000,
,,,-00.000006960000, -24.80000,
,,,-00.000006920000, -24.80000,
,,,-00.000006880000, -24.80000,
,,,-00.000006840000, -24.80000,
,,,-00.000006800000, -24.80000,
,,,-00.000006760000, -24.80000,
,,,-00.000006720000, -24.80000,
,,,-00.000006680000, -24.80000,
,,,-00.000006640000, -24.80000,
,,,-00.000006600000, -24.80000,
,,,-00.000006560000, -24.80000,
,,,-00.000006520000, -24.80000,
,,,-00.000006480000, -24.80000,
,,,-00.000006440000, -24.80000,
,,,-00.000006400000, -24.80000,
,,,-00.000006360000, -24.80000,
,,,-00.000006320000, -24.80000,
,,,-00.000006280000, -24.80000,
,,,-00.000006240000, -24.80000,
,,,-00.000006200000, -24.80000,
,,,-00.000006160000, -24.80000,
,,,-00.000006120000, -24.80000,
,,,-00.000006080000, -24.80000,
,,,-00.000006040000, -24.80000,
,,,-00.000006000000, -24.80000,
,,,-00.000005960000, -24.80000,
,,,-00.000005920000, -24.80000,
,,,-00.000005880000, -24.80000,
,,,-00.000005840000, -24.80000,
,,,-00.000005800000, -24.80000,
,,,-00.000005760000, -24.80000,
,,,-00.000005720000, -24.80000,
,,,-00.000005680000, -24.80000,
,,,-00.000005640000, -24.80000,
,,,-00.000005600000, -24.80000,
,,,-00.000005560000, -24.80000,
,,,-00.000005520000, -24.80000,
,,,-00.000005480000, -24.80000,
,,,-00.000005440000, -24.80000,
,,,-00.000005400000, -24.80000,
,,,-00.000005360000, -24.80000,
,,,-00.000005320000, -24.80000,
,,,-00.000005280000, -24.80000,
,,,-00.000005240000, -24.80000,
,,,-00.000005200000, -24.80000,
,,,-00.000005160000, -24.80000,
,,,-00.000005120000, -24.80000,
,,,-00.000005080000, -24.80000,
,,,-00.000005040000, -24.80000,
,,,-00.000005000000, -24.80000,
,,,-00.000004960000, -24.80000,
,,,-00.000004920000, -24.80000,
,,,-00.000004880000, -24.80000,
,,,-00.000004840000, -24.80000,
,,,-00.000004800000, -24.80000,
,,,-00.000004760000, -24.80000,
,,,-00.000004720000, -24.80000,
,,,-00.000004680000, -24.80000,
,,,-00.000004640000, -24.80000,
,,,-00.000004600000, -24.80000,
,,,-00.000004560000, -24.80000,
,,,-00.000004520000, -24.80000,
,,,-00.000004480000, -24.80000,
,,,-00.000004440000, -24.80000,
,,,-00.000004400000, -24.80000,
,,,-00.000004360000, -24.80000,
,,,-00.000004320000, -24.80000,
,,,-00.000004280000, -24.80000,
,,,-00.000004240000, -24.80000,
,,,-00.000004200000, -24.80000,
,,,-00.000004160000, -24.80000,
,,,-00.000004120000, -24.80000,
,,,-00.000004080000, -24.80000,
,,,-00.000004040000, -24.80000,
,,,-00.000004000000, -24.80000,
,,,-00.000003960000, -24.80000,
,,,-00.000003920000, -24.80000,
,,,-00.000003880000, -24.80000,
,,,-00.000003840000, -24.80000,
,,,-00.000003800000, -24.80000,
,,,-00.000003760000, -24.80000,
,,,-00.000003720000, -24.80000,
,,,-00.000003680000, -24.80000,
,,,-00.000003640000, -24.80000,
,,,-00.000003600000, -24.80000,
,,,-00.000003560000, -24.80000,
,,,-00.000003520000, -24.80000,
,,,-00.000003480000, -24.80000,
,,,-00.000003440000, -24.80000,
,,,-00.000003400000, -24.80000,
,,,-00.000003360000, -24.80000,
,,,-00.000003320000, -24.80000,
,,,-00.000003280000, -24.80000,
,,,-00.000003240000, -24.80000,
,,,-00.000003200000, -24.80000,
,,,-00.000003160000, -24.80000,
,,,-00.000003120000, -24.80000,
,,,-00.000003080000, -24.80000,
,,,-00.000003040000, -24.80000,
,,,-00.000003000000, -24.80000,
,,,-00.000002960000, -24.80000,
,,,-00.000002920000, -24.80000,
,,,-00.000002880000, -24.80000,
,,,-00.000002840000, -24.80000,
,,,-00.000002800000, -24.80000,
,,,-00.000002760000, -24.80000,
,,,-00.000002720000, -24.80000,
,,,-00.000002680000, -24.80000,
,,,-00.000002640000, -24.80000,
,,,-00.000002600000, -24.80000,
,,,-00.000002560000, -24.80000,
,,,-00.000002520000, -24.80000,
,,,-00.000002480000, -24.80000,
,,,-00.000002440000, -24.80000,
,,,-00.000002400000, -24.80000,
,,,-00.000002360000, -24.80000,
,,,-00.000002320000, -24.80000,
,,,-00.000002280000, -24.80000,
,,,-00.000002240000, -24.80000,
,,,-00.000002200000, -24.80000,
,,,-00.000002160000, -24.80000,
,,,-00.000002120000, -24.80000,
,,,-00.000002080000, -24.80000,
,,,-00.000002040000, -24.80000,
,,,-00.000002000000, -24.80000,
,,,-00.000001960000, -24.80000,
,,,-00.000001920000, -24.80000,
,,,-00.000001880000, -24.80000,
,,,-00.000001840000, -24.80000,
,,,-00.000001800000, -24.80000,
,,,-00.000001760000, -24.80000,
,,,-00.000001720000, -24.80000,
,,,-00.000001680000, -24.80000,
,,,-00.000001640000, -24.80000,
,,,-00.000001600000, -24.80000,
,,,-00.000001560000, -24.80000,
,,,-00.000001520000, -24.80000,
,,,-00.000001480000, -24.80000,
,,,-00.000001440000, -24.80000,
,,,-00.000001400000, -24.80000,
,,,-00.000001360000, -24.80000,
,,,-00.000001320000, -24.80000,
,,,-00.000001280000, -24.80000,
,,,-00.000001240000, -24.80000,
,,,-00.000001200000, -24.80000,
,,,-00.000001160000, -24.80000,
,,,-00.000001120000, -24.80000,
,,,-00.000001080000, -24.80000,
,,,-00.000001040000, -24.80000,
,,,-00.000001000000, -24.80000,
,,,-00.000000960000, -24.80000,
,,,-00.000000920000, -24.80000,
,,,-00.000000880000, -24.80000,
,,,-00.000000840000, -24.80000,
,,,-00.000000800000, -24.80000,
,,,-00.000000760000, -24.80000,
,,,-00.000000720000, -24.80000,
,,,-00.000000680000, -24.80000,
,,,-00.000000640000, -24.80000,
,,,-00.000000600000, -24.80000,
,,,-00.000000560000, -24.80000,
,,,-00.000000520000, -24.80000,
,,,-00.000000480000, -24.80000,
,,,-00.000000440000, -24.80000,
,,,-00.000000400000, -24.80000,
,,,-00.000000360000, -24.80000,
,,,-00.000000320000, -24.80000,
,,,-00.000000280000, -24.80000,
,,,-00.000000240000, -24.80000,
,,,-00.000000200000, -24.80000,
,,,-00.000000160000, -24.80000,
,,,-00.000000120000, -24.80000,
,,,-00.000000080000, -24.80000,
,,,-00.000000040000, -24.80000,
,,,-00.000000000000, -24.80000,
,,,00.000000040000, -24.80000,
,,,00.000000080000, -24.80000,
,,,00.000000120000, -24.80000,
,,,00.000000160000, -24.80000,
,,,00.000000200000, -24.80000,
,,,00.000000240000,  -4.00000,
,,,00.000000280000,  20.80000,
,,,00.000000320000,  23.20000,
,,,00.000000360000,  23.20000,
,,,00.000000400000,  22.40000,
,,,00.000000440000,  22.40000,
,,,00.000000480000,  22.40000,
,,,00.000000520000,  22.40000,
,,,00.000000560000,  21.60000,
,,,00.000000600000,  21.60000,
,,,00.000000640000,  21.60000,
,,,00.000000680000,  21.60000,
,,,00.000000720000,  20.80000,
,,,00.000000760000,  20.80000,
,,,00.000000800000,  20.80000,
,,,00.000000840000,  20.80000,
,,,00.000000880000,  20.80000,
,,,00.000000920000,  20.00000,
,,,00.000000960000,  20.00000,
,,,00.000001000000,  20.00000,
,,,00.000001040000,  20.00000,
,,,00.000001080000,  20.00000,
,,,00.000001120000,  19.20000,
,,,00.000001160000,  19.20000,
,,,00.000001200000,  19.20000,
,,,00.000001240000,  19.20000,
,,,00.000001280000,  19.20000,
,,,00.000001320000,  18.40000,
,,,00.000001360000,  18.40000,
,,,00.000001400000,  18.40000,
,,,00.000001440000,  18.40000,
,,,00.000001480000,  18.40000,
,,,00.000001520000,  18.40000,
,,,00.000001560000,  17.60000,
,,,00.000001600000,  17.60000,
,,,00.000001640000,  17.60000,
,,,00.000001680000,  17.60000,
,,,00.000001720000,  17.60000,
,,,00.000001760000,  17.60000,
,,,00.000001800000,  16.80000,
,,,00.000001840000,  16.80000,
,,,00.000001880000,  16.80000,
,,,00.000001920000,  16.80000,
,,,00.000001960000,  16.80000,
,,,00.000002000000,  16.80000,
,,,00.000002040000,  16.80000,
,,,00.000002080000,  16.00000,
,,,00.000002120000,  16.00000,
,,,00.000002160000,  16.00000,
,,,00.000002200000,  16.00000,
,,,00.000002240000,  16.00000,
,,,00.000002280000,  16.00000,
,,,00.000002320000,  16.00000,
,,,00.000002360000,  16.00000,
,,,00.000002400000,  16.00000,
,,,00.000002440000,  16.00000,
,,,00.000002480000,  16.00000,
,,,00.000002520000,  15.20000,
,,,00.000002560000,  15.20000,
,,,00.000002600000,  15.20000,
,,,00.000002640000,  15.20000,
,,,00.000002680000,  15.20000,
,,,00.000002720000,  15.20000,
,,,00.000002760000,  15.20000,
,,,00.000002800000,  15.20000,
,,,00.000002840000,  15.20000,
,,,00.000002880000,  15.20000,
,,,00.000002920000,  15.20000,
,,,00.000002960000,  15.20000,
,,,00.000003000000,  15.20000,
,,,00.000003040000,  15.20000,
,,,00.000003080000,  15.20000,
,,,00.000003120000,  15.20000,
,,,00.000003160000,  15.20000,
,,,00.000003200000,  15.20000,
,,,00.000003240000,  15.20000,
,,,00.000003280000,  15.20000,
,,,00.000003320000,  15.20000,
,,,00.000003360000,  15.20000,
,,,00.000003400000,  15.20000,
,,,00.000003440000,  15.20000,
,,,00.000003480000,  15.20000,
,,,00.000003520000,  15.20000,
,,,00.000003560000,  15.20000,
,,,00.000003600000,  15.20000,
,,,00.000003640000,  15.20000,
,,,00.000003680000,  15.20000,
,,,00.000003720000,  15.20000,
,,,00.000003760000,  15.20000,
,,,00.000003800000,  15.20000,
,,,00.000003840000,  15.20000,
,,,00.000003880000,  15.20000,
,,,00.000003920000,  15.20000,
,,,00.000003960000,  15.20000,
,,,00.000004000000,  15.20000,
,,,00.000004040000,  15.20000,
,,,00.000004080000,  15.20000,
,,,00.000004120000,  16.00000,
,,,00.000004160000,  16.00000,
,,,00.000004200000,  16.00000,
,,,00.000004240000,  16.00000,
,,,00.000004280000,  16.00000,
,,,00.000004320000,  16.00000,
,,,00.000004360000,  16.00000,
,,,00.000004400000,  16.00000,
,,,00.000004440000,  16.00000,
,,,00.000004480000,  16.00000,
,,,00.000004520000,  16.00000,
,,,00.000004560000,  16.80000,
,,,00.000004600000,  16.80000,
,,,00.000004640000,  16.80000,
,,,00.000004680000,  16.80000,
,,,00.000004720000,  16.80000,
,,,00.000004760000,  16.80000,
,,,00.000004800000,  16.80000,
,,,00.000004840000,  16.80000,
,,,00.000004880000,  16.80000,
,,,00.000004920000,  17.60000,
,,,00.000004960000,  17.60000,
,,,00.000005000000,  17.60000,
,,,00.000005040000,  17.60000,
,,,00.000005080000,  17.60000,
,,,00.000005120000,  17.60000,
,,,00.000005160000,  17.60000,
,,,00.000005200000,  17.60000,
,,,00.000005240000,  18.40000,
,,,00.000005280000,  18.40000,
,,,00.000005320000,  18.40000,
,,,00.000005360000,  18.40000,
,,,00.000005400000,  18.40000,
,,,00.000005440000,  18.40000,
,,,00.000005480000,  18.40000,
,,,00.000005520000,  19.20000,
,,,00.000005560000,  19.20000,
,,,00.000005600000,  19.20000,
,,,00.000005640000,  19.20000,
,,,00.000005680000,  19.20000,
,,,00.000005720000,  19.20000,
,,,00.000005760000,  20.00000,
,,,00.000005800000,  20.00000,
,,,00.000005840000,  20.00000,
,,,00.000005880000,  20.00000,
,,,00.000005920000,  20.00000,
,,,00.000005960000,  20.00000,
,,,00.000006000000,  20.00000,
,,,00.000006040000,  20.80000,
,,,00.000006080000,  20.80000,
,,,00.000006120000,  20.80000,
,,,00.000006160000,  20.80000,
,,,00.000006200000,  20.80000,
,,,00.000006240000,  21.60000,
,,,00.000006280000,  21.60000,
,,,00.000006320000,  21.60000,
,,,00.000006360000,  21.60000,
,,,00.000006400000,  21.60000,
,,,00.000006440000,  21.60000,
,,,00.000006480000,  21.60000,
,,,00.000006520000,  22.40000,
,,,00.000006560000,  22.40000,
,,,00.000006600000,  22.40000,
,,,00.000006640000,  22.40000,
,,,00.000006680000,  22.40000,
,,,00.000006720000,  22.40000,
,,,00.000006760000,  23.20000,
,,,00.000006800000,  23.20000,
,,,00.000006840000,  23.20000,
,,,00.000006880000,  23.20000,
,,,00.000006920000,  23.20000,
,,,00.000006960000,  23.20000,
,,,00.000007000000,  23.20000,
,,,00.000007040000,  24.00000,
,,,00.000007080000,  24.00000,
,,,00.000007120000,  24.00000,
,,,00.000007160000,  24.00000,
,,,00.000007200000,  24.00000,
,,,00.000007240000,  24.00000,
,,,00.000007280000,  24.80000,
,,,00.000007320000,  24.80000,
,,,00.000007360000,  24.80000,
,,,00.000007400000,  24.80000,
,,,00.000007440000,  24.80000,
,,,00.000007480000,  24.80000,
,,,00.000007520000,  24.80000,
,,,00.000007560000,  25.60000,
,,,00.000007600000,  25.60000,
,,,00.000007640000,  25.60000,
,,,00.000007680000,  25.60000,
,,,00.000007720000,  25.60000,
,,,00.000007760000,  25.60000,
,,,00.000007800000,  25.60000,
,,,00.000007840000,  26.40000,
,,,00.000007880000,  26.40000,
,,,00.000007920000,  26.40000,
,,,00.000007960000,  26.40000,
,,,00.000008000000,  26.40000,
,,,00.000008040000,  26.40000,
,,,00.000008080000,  26.40000,
,,,00.000008120000,  26.40000,
,,,00.000008160000,  27.20000,
,,,00.000008200000,  27.20000,
,,,00.000008240000,  27.20000,
,,,00.000008280000,  27.20000,
,,,00.000008320000,  27.20000,
,,,00.000008360000,  27.20000,
,,,00.000008400000,  27.20000,
,,,00.000008440000,  27.20000,
,,,00.000008480000,  27.20000,
,,,00.000008520000,  28.00000,
,,,00.000008560000,  28.00000,
,,,00.000008600000,  28.00000,
,,,00.000008640000,  28.00000,
,,,00.000008680000,  28.00000,
,,,00.000008720000,  28.00000,
,,,00.000008760000,  28.00000,
,,,00.000008800000,  28.00000,
,,,00.000008840000,  28.00000,
,,,00.000008880000,  28.00000,
,,,00.000008920000,  28.00000,
,,,00.000008960000,  28.00000,
,,,00.000009000000,  28.80000,
,,,00.000009040000,  28.80000,
,,,00.000009080000,  28.80000,
,,,00.000009120000,  28.80000,
,,,00.000009160000,  28.80000,
,,,00.000009200000,  28.80000,
,,,00.000009240000,  28.80000,
,,,00.000009280000,  28.80000,
,,,00.000009320000,  28.80000,
,,,00.000009360000,  28.80000,
,,,00.000009400000,  28.80000,
,,,00.000009440000,  28.80000,
,,,00.000009480000,  28.80000,
,,,00.000009520000,  28.80000,
,,,00.000009560000,  28.80000,
,,,00.000009600000,  28.80000,
,,,00.000009640000,  28.80000,
,,,00.000009680000,  28.80000,
,,,00.000009720000,  28.80000,
,,,00.000009760000,  28.80000,
,,,00.000009800000,  29.60000,
,,,00.000009840000,  29.60000,
,,,00.000009880000,  28.80000,
,,,00.000009920000,  29.60000,
,,,00.000009960000,  29.60000,
,,,00.000010000000,  29.60000,
,,,00.000010040000,  29.60000,
,,,00.000010080000,  29.60000,
,,,00.000010120000,  29.60000,
,,,00.000010160000,  29.60000,
,,,00.000010200000,  29.60000,
,,,00.000010240000,  29.60000,
,,,00.000010280000,  29.60000,
,,,00.000010320000,  29.60000,
,,,00.000010360000,  29.60000,
,,,00.000010400000,  29.60000,
,,,00.000010440000,  29.60000,
,,,00.000010480000,  29.60000,
,,,00.000010520000,  28.80000,
,,,00.000010560000,  29.60000,
,,,00.000010600000,  29.60000,
,,,00.000010640000,  28.80000,
,,,00.000010680000,  28.80000,
,,,00.000010720000,  28.80000,
,,,00.000010760000,  28.80000,
,,,00.000010800000,  28.80000,
,,,00.000010840000,  28.80000,
,,,00.000010880000,  28.80000,
,,,00.000010920000,  28.80000,
,,,00.000010960000,  28.80000,
,,,00.000011000000,  28.80000,
,,,00.000011040000,  28.80000,
,,,00.000011080000,  28.80000,
,,,00.000011120000,  28.80000,
,,,00.000011160000,  28.80000,
,,,00.000011200000,  28.80000,
,,,00.000011240000,  28.80000,
,,,00.000011280000,  28.80000,
,,,00.000011320000,  28.80000,
,,,00.000011360000,  28.80000,
,,,00.000011400000,  28.80000,
,,,00.000011440000,  28.80000,
,,,00.000011480000,  28.80000,
,,,00.000011520000,  28.80000,
,,,00.000011560000,  28.00000,
,,,00.000011600000,  28.00000,
,,,00.000011640000,  28.00000,
,,,00.000011680000,  28.00000,
,,,00.000011720000,  28.00000,
,,,00.000011760000,  28.00000,
,,,00.000011800000,  28.00000,
,,,00.000011840000,  28.00000,
,,,00.000011880000,  28.00000,
,,,00.000011920000,  28.00000,
,,,00.000011960000,  28.00000,
,,,00.000012000000,  28.00000,
,,,00.000012040000,  28.00000,
,,,00.000012080000,  28.00000,
,,,00.000012120000,  27.20000,
,,,00.000012160000,  27.20000,
,,,00.000012200000,  27.20000,
,,,00.000012240000,  27.20000,
,,,00.000012280000,  27.20000,
,,,00.000012320000,  27.20000,
,,,00.000012360000,  27.20000,
,,,00.000012400000,  27.20000,
,,,00.000012440000,  27.20000,
,,,00.000012480000,  27.20000,
,,,00.000012520000,  27.20000,
,,,00.000012560000,  27.20000,
,,,00.000012600000,  26.40000,
,,,00.000012640000,  26.40000,
,,,00.000012680000,  26.40000,
,,,00.000012720000,  26.40000,
,,,00.000012760000,  26.40000,
,,,00.000012800000,  26.40000,
,,,00.000012840000,  26.40000,
,,,00.000012880000,  26.40000,
,,,00.000012920000,  26.40000,
,,,00.000012960000,  26.40000,
,,,00.000013000000,  25.60000,
,,,00.000013040000,  25.60000,
,,,00.000013080000,  25.60000,
,,,00.000013120000,  25.60000,
,,,00.000013160000,  25.60000,
,,,00.000013200000,  25.60000,
,,,00.000013240000,  25.60000,
,,,00.000013280000,  25.60000,
,,,00.000013320000,  25.60000,
,,,00.000013360000,  25.60000,
,,,00.000013400000,  25.60000,
,,,00.000013440000,  24.80000,
,,,00.000013480000,  24.80000,
,,,00.000013520000,  24.80000,
,,,00.000013560000,  24.80000,
,,,00.000013600000,  24.80000,
,,,00.000013640000,  24.80000,
,,,00.000013680000,  24.80000,
,,,00.000013720000,  24.80000,
,,,00.000013760000,  24.80000,
,,,00.000013800000,  24.80000,
,,,00.000013840000,  24.80000,
,,,00.000013880000,  24.00000,
,,,00.000013920000,  24.00000,
,,,00.000013960000,  24.00000,
,,,00.000014000000,  24.00000,
,,,00.000014040000,  24.00000,
,,,00.000014080000,  24.00000,
,,,00.000014120000,  24.00000,
,,,00.000014160000,  24.00000,
,,,00.000014200000,  24.00000,
,,,00.000014240000,  24.00000,
,,,00.000014280000,  24.00000,
,,,00.000014320000,  24.00000,
,,,00.000014360000,  23.20000,
,,,00.000014400000,  23.20000,
,,,00.000014440000,  23.20000,
,,,00.000014480000,  23.20000,
,,,00.000014520000,  23.20000,
,,,00.000014560000,  23.20000,
,,,00.000014600000,  23.20000,
,,,00.000014640000,  23.20000,
,,,00.000014680000,  23.20000,
,,,00.000014720000,  23.20000,
,,,00.000014760000,  23.20000,
,,,00.000014800000,  23.20000,
,,,00.000014840000,  23.20000,
,,,00.000014880000,  22.40000,
,,,00.000014920000,  22.40000,
,,,00.000014960000,  22.40000,
,,,00.000015000000,  22.40000,
,,,00.000015040000,  22.40000,
,,,00.000015080000,  22.40000,
,,,00.000015120000,  22.40000,
,,,00.000015160000,  22.40000,
,,,00.000015200000,  22.40000,
,,,00.000015240000,  22.40000,
,,,00.000015280000,  22.40000,
,,,00.000015320000,  22.40000,
,,,00.000015360000,  22.40000,
,,,00.000015400000,  22.40000,
