5. RLC Dominio Tempo/ALL0000/F0000CH2.CSV

Record Length,2.500000e+03,,  -0.000009600000,   0.00000,
Sample Interval,4.000000e-08,,  -0.000009560000,   0.00000,
Trigger Point,2.400000000000e+02,,  -0.000009520000,   0.00000,
,,,  -0.000009480000,   0.00000,
,,,  -0.000009440000,   0.00000,
,,,  -0.000009400000,   0.00000,
Source,CH2,,  -0.000009360000,   0.00000,
Vertical Units,V,,  -0.000009320000,   0.00000,
Vertical Scale,1.000000e+01,,  -0.000009280000,   0.00000,
Vertical Offset,0.000000e+00,,  -0.000009240000,   0.00000,
Horizontal Units,s,,  -0.000009200000,   0.00000,
Horizontal Scale,1.000000e-05,,  -0.000009160000,   0.00000,
Pt Fmt,Y,,  -0.000009120000,   0.00000,
Yzero,0.000000e+00,,  -0.000009080000,   0.00000,
Probe Atten,1.000000e+01,,  -0.000009040000,   0.00000,
Model Number,TBS1102B-EDU,,  -0.000009000000,   0.00000,
Serial Number,C021597,,  -0.000008960000,   0.00000,
Firmware Version,FV:v4.06,,  -0.000008920000,   0.00000,
,,,-00.000008880000,   0.00000,
,,,-00.000008840000,   0.00000,
,,,-00.000008800000,   0.00000,
,,,-00.000008760000,   0.00000,
,,,-00.000008720000,   0.00000,
,,,-00.000008680000,   0.00000,
,,,-00.000008640000,   0.00000,
,,,-00.000008600000,   0.00000,
,,,-00.000008560000,   0.00000,
,,,-00.000008520000,   0.00000,
,,,-00.000008480000,   0.00000,
,,,-00.000008440000,   0.00000,
,,,-00.000008400000,   0.00000,
,,,-00.000008360000,   0.00000,
,,,-00.000008320000,   0.00000,
,,,-00.000008280000,   0.00000,
,,,-00.000008240000,   0.00000,
,,,-00.000008200000,   0.00000,
,,,-00.000008160000,   0.00000,
,,,-00.000008120000,   0.00000,
,,,-00.000008080000,   0.00000,
,,,-00.000008040000,   0.00000,
,,,-00.000008000000,   0.00000,
,,,-00.000007960000,   0.00000,
,,,-00.000007920000,   0.00000,
,,,-00.000007880000,   0.40000,
,,,-00.000007840000,   0.00000,
,,,-00.000007800000,   0.00000,
,,,-00.000007760000,   0.00000,
,,,-00.000007720000,   0.00000,
,,,-00.000007680000,   0.00000,
,,,-00.000007640000,   0.00000,
,,,-00.000007600000,   0.00000,
,,,-00.000007560000,   0.00000,
,,,-00.000007520000,   0.00000,
,,,-00.000007480000,   0.00000,
,,,-00.000007440000,   0.00000,
,,,-00.000007400000,   0.00000,
,,,-00.000007360000,   0.00000,
,,,-00.000007320000,   0.00000,
,,,-00.000007280000,   0.00000,
,,,-00.000007240000,   0.00000,
,,,-00.000007200000,   0.00000,
,,,-00.000007160000,   0.00000,
,,,-00.000007120000,   0.00000,
,,,-00.000007080000,   0.00000,
,,,-00.000007040000,   0.00000,
,,,-00.000007000000,   0.00000,
,,,-00.000006960000,   0.00000,
,,,-00.000006920000,   0.00000,
,,,-00.000006880000,   0.00000,
,,,-00.000006840000,   0.00000,
,,,-00.000006800000,   0.00000,
,,,-00.000006760000,   0.00000,
,,,-00.000006720000,   0.00000,
,,,-00.000006680000,   0.00000,
,,,-00.000006640000,   0.00000,
,,,-00.000006600000,   0.00000,
,,,-00.000006560000,   0.00000,
,,,-00.000006520000,   0.00000,
,,,-00.000006480000,   0.00000,
,,,-00.000006440000,   0.00000,
,,,-00.000006400000,   0.00000,
,,,-00.000006360000,   0.00000,
,,,-00.000006320000,   0.00000,
,,,-00.000006280000,   0.00000,
,,,-00.000006240000,   0.00000,
,,,-00.000006200000,   0.00000,
,,,-00.000006160000,   0.00000,
,,,-00.000006120000,   0.00000,
,,,-00.000006080000,   0.00000,
,,,-00.000006040000,   0.00000,
,,,-00.000006000000,   0.00000,
,,,-00.000005960000,   0.00000,
,,,-00.000005920000,   0.00000,
,,,-00.000005880000,   0.00000,
,,,-00.000005840000,   0.00000,
,,,-00.000005800000,   0.00000,
,,,-00.000005760000,   0.00000,
,,,-00.000005720000,   0.00000,
,,,-00.000005680000,   0.00000,
,,,-00.000005640000,   0.00000,
,,,-00.000005600000,   0.00000,
,,,-00.000005560000,   0.00000,
,,,-00.000005520000,   0.00000,
,,,-00.000005480000,   0.00000,
,,,-00.000005440000,   0.00000,
,,,-00.000005400000,   0.00000,
,,,-00.000005360000,   0.00000,
,,,-00.000005320000,   0.00000,
,,,-00.000005280000,   0.00000,
,,,-00.000005240000,   0.00000,
,,,-00.000005200000,   0.00000,
,,,-00.000005160000,   0.00000,
,,,-00.000005120000,   0.00000,
,,,-00.000005080000,   0.00000,
,,,-00.000005040000,   0.00000,
,,,-00.000005000000,   0.00000,
,,,-00.000004960000,   0.00000,
,,,-00.000004920000,   0.00000,
,,,-00.000004880000,   0.00000,
,,,-00.000004840000,   0.00000,
,,,-00.000004800000,   0.00000,
,,,-00.000004760000,   0.00000,
,,,-00.000004720000,   0.00000,
,,,-00.000004680000,   0.00000,
,,,-00.000004640000,   0.00000,
,,,-00.000004600000,   0.00000,
,,,-00.000004560000,   0.00000,
,,,-00.000004520000,   0.00000,
,,,-00.000004480000,   0.00000,
,,,-00.000004440000,   0.00000,
,,,-00.000004400000,   0.00000,
,,,-00.000004360000,   0.00000,
,,,-00.000004320000,   0.00000,
,,,-00.000004280000,   0.00000,
,,,-00.000004240000,   0.00000,
,,,-00.000004200000,   0.00000,
,,,-00.000004160000,   0.00000,
,,,-00.000004120000,   0.00000,
,,,-00.000004080000,   0.00000,
,,,-00.000004040000,   0.00000,
,,,-00.000004000000,   0.00000,
,,,-00.000003960000,   0.00000,
,,,-00.000003920000,   0.00000,
,,,-00.000003880000,   0.00000,
,,,-00.000003840000,   0.00000,
,,,-00.000003800000,   0.00000,
,,,-00.000003760000,   0.40000,
,,,-00.000003720000,   0.00000,
,,,-00.000003680000,   0.00000,
,,,-00.000003640000,   0.00000,
,,,-00.000003600000,   0.00000,
,,,-00.000003560000,   0.00000,
,,,-00.000003520000,   0.00000,
,,,-00.000003480000,   0.00000,
,,,-00.000003440000,   0.00000,
,,,-00.000003400000,   0.00000,
,,,-00.000003360000,   0.00000,
,,,-00.000003320000,   0.00000,
,,,-00.000003280000,   0.00000,
,,,-00.000003240000,   0.00000,
,,,-00.000003200000,   0.00000,
,,,-00.000003160000,   0.00000,
,,,-00.000003120000,   0.00000,
,,,-00.000003080000,   0.00000,
,,,-00.000003040000,   0.40000,
,,,-00.000003000000,   0.00000,
,,,-00.000002960000,   0.00000,
,,,-00.000002920000,   0.40000,
,,,-00.000002880000,   0.40000,
,,,-00.000002840000,   0.00000,
,,,-00.000002800000,   0.00000,
,,,-00.000002760000,   0.00000,
,,,-00.000002720000,   0.40000,
,,,-00.000002680000,   0.40000,
,,,-00.000002640000,   0.00000,
,,,-00.000002600000,   0.40000,
,,,-00.000002560000,   0.40000,
,,,-00.000002520000,   0.00000,
,,,-00.000002480000,   0.00000,
,,,-00.000002440000,   0.40000,
,,,-00.000002400000,   0.00000,
,,,-00.000002360000,   0.00000,
,,,-00.000002320000,   0.40000,
,,,-00.000002280000,   0.40000,
,,,-00.000002240000,   0.00000,
,,,-00.000002200000,   0.40000,
,,,-00.000002160000,   0.40000,
,,,-00.000002120000,   0.40000,
,,,-00.000002080000,   0.40000,
,,,-00.000002040000,   0.40000,
,,,-00.000002000000,   0.40000,
,,,-00.000001960000,   0.40000,
,,,-00.000001920000,   0.40000,
,,,-00.000001880000,   0.40000,
,,,-00.000001840000,   0.40000,
,,,-00.000001800000,   0.40000,
,,,-00.000001760000,   0.40000,
,,,-00.000001720000,   0.40000,
,,,-00.000001680000,   0.40000,
,,,-00.000001640000,   0.40000,
,,,-00.000001600000,   0.40000,
,,,-00.000001560000,   0.40000,
,,,-00.000001520000,   0.40000,
,,,-00.000001480000,   0.00000,
,,,-00.000001440000,   0.40000,
,,,-00.000001400000,   0.40000,
,,,-00.000001360000,   0.40000,
,,,-00.000001320000,   0.00000,
,,,-00.000001280000,   0.40000,
,,,-00.000001240000,   0.40000,
,,,-00.000001200000,   0.40000,
,,,-00.000001160000,   0.40000,
,,,-00.000001120000,   0.40000,
,,,-00.000001080000,   0.40000,
,,,-00.000001040000,   0.40000,
,,,-00.000001000000,   0.40000,
,,,-00.000000960000,   0.40000,
,,,-00.000000920000,   0.40000,
,,,-00.000000880000,   0.40000,
,,,-00.000000840000,   0.40000,
,,,-00.000000800000,   0.40000,
,,,-00.000000760000,   0.40000,
,,,-00.000000720000,   0.40000,
,,,-00.000000680000,   0.40000,
,,,-00.000000640000,   0.40000,
,,,-00.000000600000,   0.00000,
,,,-00.000000560000,   0.40000,
,,,-00.000000520000,   0.40000,
,,,-00.000000480000,   0.40000,
,,,-00.000000440000,   0.40000,
,,,-00.000000400000,   0.40000,
,,,-00.000000360000,   0.40000,
,,,-00.000000320000,   0.40000,
,,,-00.000000280000,   0.40000,
,,,-00.000000240000,   0.40000,
,,,-00.000000200000,   0.00000,
,,,-00.000000160000,   0.40000,
,,,-00.000000120000,   0.40000,
,,,-00.000000080000,   0.40000,
,,,-00.000000040000,   0.40000,
,,,-00.000000000000,   0.40000,
,,,00.000000040000,   0.40000,
,,,00.000000080000,   0.40000,
,,,00.000000120000,   0.40000,
,,,00.000000160000,   0.40000,
,,,00.000000200000,   0.40000,
,,,00.000000240000,  12.80000,
,,,00.000000280000,  50.00000,
,,,00.000000320000,  46.80000,
,,,00.000000360000,  48.00000,
,,,00.000000400000,  47.60000,
,,,00.000000440000,  47.20000,
,,,00.000000480000,  46.80000,
,,,00.000000520000,  46.40000,
,,,00.000000560000,  46.00000,
,,,00.000000600000,  45.60000,
,,,00.000000640000,  45.20000,
,,,00.000000680000,  45.20000,
,,,00.000000720000,  44.40000,
,,,00.000000760000,  44.00000,
,,,00.000000800000,  43.60000,
,,,00.000000840000,  43.20000,
,,,00.000000880000,  42.80000,
,,,00.000000920000,  42.40000,
,,,00.000000960000,  42.00000,
,,,00.000001000000,  41.60000,
,,,00.000001040000,  41.20000,
,,,00.000001080000,  40.40000,
,,,00.000001120000,  40.00000,
,,,00.000001160000,  39.60000,
,,,00.000001200000,  38.80000,
,,,00.000001240000,  38.40000,
,,,00.000001280000,  38.00000,
,,,00.000001320000,  37.20000,
,,,00.000001360000,  36.80000,
,,,00.000001400000,  36.00000,
,,,00.000001440000,  35.60000,
,,,00.000001480000,  34.80000,
,,,00.000001520000,  34.40000,
,,,00.000001560000,  33.60000,
,,,00.000001600000,  32.80000,
,,,00.000001640000,  32.40000,
,,,00.000001680000,  31.60000,
,,,00.000001720000,  31.20000,
,,,00.000001760000,  30.40000,
,,,00.000001800000,  29.60000,
,,,00.000001840000,  29.20000,
,,,00.000001880000,  28.40000,
,,,00.000001920000,  27.60000,
,,,00.000001960000,  27.20000,
,,,00.000002000000,  26.40000,
,,,00.000002040000,  25.60000,
,,,00.000002080000,  24.80000,
,,,00.000002120000,  24.00000,
,,,00.000002160000,  23.60000,
,,,00.000002200000,  22.80000,
,,,00.000002240000,  22.00000,
,,,00.000002280000,  21.20000,
,,,00.000002320000,  20.40000,
,,,00.000002360000,  20.00000,
,,,00.000002400000,  19.20000,
,,,00.000002440000,  18.40000,
,,,00.000002480000,  17.60000,
,,,00.000002520000,  16.80000,
,,,00.000002560000,  16.00000,
,,,00.000002600000,  15.60000,
,,,00.000002640000,  14.80000,
,,,00.000002680000,  14.00000,
,,,00.000002720000,  13.20000,
,,,00.000002760000,  12.40000,
,,,00.000002800000,  11.60000,
,,,00.000002840000,  10.80000,
,,,00.000002880000,  10.40000,
,,,00.000002920000,   9.60000,
,,,00.000002960000,   8.80000,
,,,00.000003000000,   8.00000,
,,,00.000003040000,   7.20000,
,,,00.000003080000,   6.40000,
,,,00.000003120000,   6.00000,
,,,00.000003160000,   5.20000,
,,,00.000003200000,   4.40000,
,,,00.000003240000,   3.60000,
,,,00.000003280000,   3.20000,
,,,00.000003320000,   2.40000,
,,,00.000003360000,   1.60000,
,,,00.000003400000,   0.80000,
,,,00.000003440000,   0.00000,
,,,00.000003480000,  -0.40000,
,,,00.000003520000,  -1.20000,
,,,00.000003560000,  -2.00000,
,,,00.000003600000,  -2.80000,
,,,00.000003640000,  -3.20000,
,,,00.000003680000,  -4.00000,
,,,00.000003720000,  -4.80000,
,,,00.000003760000,  -5.20000,
,,,00.000003800000,  -6.00000,
,,,00.000003840000,  -6.40000,
,,,00.000003880000,  -7.20000,
,,,00.000003920000,  -8.00000,
,,,00.000003960000,  -8.40000,
,,,00.000004000000,  -9.20000,
,,,00.000004040000,  -9.60000,
,,,00.000004080000, -10.40000,
,,,00.000004120000, -10.80000,
,,,00.000004160000, -11.60000,
,,,00.000004200000, -12.00000,
,,,00.000004240000, -12.80000,
,,,00.000004280000, -13.20000,
,,,00.000004320000, -14.00000,
,,,00.000004360000, -14.40000,
,,,00.000004400000, -14.80000,
,,,00.000004440000, -15.60000,
,,,00.000004480000, -16.00000,
,,,00.000004520000, -16.40000,
,,,00.000004560000, -16.80000,
,,,00.000004600000, -17.60000,
,,,00.000004640000, -18.00000,
,,,00.000004680000, -18.40000,
,,,00.000004720000, -18.80000,
,,,00.000004760000, -19.20000,
,,,00.000004800000, -20.00000,
,,,00.000004840000, -20.40000,
,,,00.000004880000, -20.80000,
,,,00.000004920000, -21.20000,
,,,00.000004960000, -21.60000,
,,,00.000005000000, -22.00000,
,,,00.000005040000, -22.40000,
,,,00.000005080000, -22.80000,
,,,00.000005120000, -23.20000,
,,,00.000005160000, -23.60000,
,,,00.000005200000, -24.00000,
,,,00.000005240000, -24.00000,
,,,00.000005280000, -24.40000,
,,,00.000005320000, -24.80000,
,,,00.000005360000, -25.20000,
,,,00.000005400000, -25.60000,
,,,00.000005440000, -25.60000,
,,,00.000005480000, -26.00000,
,,,00.000005520000, -26.40000,
,,,00.000005560000, -26.40000,
,,,00.000005600000, -26.80000,
,,,00.000005640000, -27.20000,
,,,00.000005680000, -27.20000,
,,,00.000005720000, -27.60000,
,,,00.000005760000, -27.60000,
,,,00.000005800000, -28.00000,
,,,00.000005840000, -28.00000,
,,,00.000005880000, -28.40000,
,,,00.000005920000, -28.40000,
,,,00.000005960000, -28.80000,
,,,00.000006000000, -28.80000,
,,,00.000006040000, -28.80000,
,,,00.000006080000, -29.20000,
,,,00.000006120000, -29.20000,
,,,00.000006160000, -29.20000,
,,,00.000006200000, -29.20000,
,,,00.000006240000, -29.60000,
,,,00.000006280000, -29.60000,
,,,00.000006320000, -29.60000,
,,,00.000006360000, -29.60000,
,,,00.000006400000, -29.60000,
,,,00.000006440000, -29.60000,
,,,00.000006480000, -29.60000,
,,,00.000006520000, -29.60000,
,,,00.000006560000, -29.60000,
,,,00.000006600000, -29.60000,
,,,00.000006640000, -29.60000,
,,,00.000006680000, -29.60000,
,,,00.000006720000, -29.60000,
,,,00.000006760000, -29.60000,
,,,00.000006800000, -29.60000,
,,,00.000006840000, -29.20000,
,,,00.000006880000, -29.20000,
,,,00.000006920000, -29.20000,
,,,00.000006960000, -29.20000,
,,,00.000007000000, -29.20000,
,,,00.000007040000, -28.80000,
,,,00.000007080000, -28.80000,
,,,00.000007120000, -28.80000,
,,,00.000007160000, -28.40000,
,,,00.000007200000, -28.40000,
,,,00.000007240000, -28.00000,
,,,00.000007280000, -28.00000,
,,,00.000007320000, -28.00000,
,,,00.000007360000, -27.60000,
,,,00.000007400000, -27.60000,
,,,00.000007440000, -27.20000,
,,,00.000007480000, -27.20000,
,,,00.000007520000, -26.80000,
,,,00.000007560000, -26.40000,
,,,00.000007600000, -26.40000,
,,,00.000007640000, -26.00000,
,,,00.000007680000, -26.00000,
,,,00.000007720000, -25.60000,
,,,00.000007760000, -25.20000,
,,,00.000007800000, -24.80000,
,,,00.000007840000, -24.80000,
,,,00.000007880000, -24.40000,
,,,00.000007920000, -24.00000,
,,,00.000007960000, -24.00000,
,,,00.000008000000, -23.60000,
,,,00.000008040000, -23.20000,
,,,00.000008080000, -22.80000,
,,,00.000008120000, -22.40000,
,,,00.000008160000, -22.00000,
,,,00.000008200000, -22.00000,
,,,00.000008240000, -21.60000,
,,,00.000008280000, -21.20000,
,,,00.000008320000, -20.80000,
,,,00.000008360000, -20.40000,
,,,00.000008400000, -20.00000,
,,,00.000008440000, -19.60000,
,,,00.000008480000, -19.20000,
,,,00.000008520000, -18.80000,
,,,00.000008560000, -18.40000,
,,,00.000008600000, -18.00000,
,,,00.000008640000, -17.60000,
,,,00.000008680000, -17.20000,
,,,00.000008720000, -16.80000,
,,,00.000008760000, -16.40000,
,,,00.000008800000, -16.00000,
,,,00.000008840000, -15.60000,
,,,00.000008880000, -15.20000,
,,,00.000008920000, -14.80000,
,,,00.000008960000, -14.40000,
,,,00.000009000000, -14.00000,
,,,00.000009040000, -13.60000,
,,,00.000009080000, -13.20000,
,,,00.000009120000, -12.80000,
,,,00.000009160000, -12.40000,
,,,00.000009200000, -12.00000,
,,,00.000009240000, -11.20000,
,,,00.000009280000, -10.80000,
,,,00.000009320000, -10.40000,
,,,00.000009360000, -10.00000,
,,,00.000009400000,  -9.60000,
,,,00.000009440000,  -9.20000,
,,,00.000009480000,  -8.80000,
,,,00.000009520000,  -8.40000,
,,,00.000009560000,  -7.60000,
,,,00.000009600000,  -7.20000,
,,,00.000009640000,  -6.80000,
,,,00.000009680000,  -6.40000,
,,,00.000009720000,  -6.00000,
,,,00.000009760000,  -5.60000,
,,,00.000009800000,  -5.20000,
,,,00.000009840000,  -4.80000,
,,,00.000009880000,  -4.40000,
,,,00.000009920000,  -3.60000,
,,,00.000009960000,  -3.20000,
,,,00.000010000000,  -2.80000,
,,,00.000010040000,  -2.40000,
,,,00.000010080000,  -2.00000,
,,,00.000010120000,  -1.60000,
,,,00.000010160000,  -1.20000,
,,,00.000010200000,  -0.80000,
,,,00.000010240000,  -0.40000,
,,,00.000010280000,   0.00000,
,,,00.000010320000,   0.40000,
,,,00.000010360000,   0.80000,
,,,00.000010400000,   1.60000,
,,,00.000010440000,   2.00000,
,,,00.000010480000,   2.40000,
,,,00.000010520000,   2.80000,
,,,00.000010560000,   3.20000,
,,,00.000010600000,   3.60000,
,,,00.000010640000,   4.00000,
,,,00.000010680000,   4.40000,
,,,00.000010720000,   4.80000,
,,,00.000010760000,   5.20000,
,,,00.000010800000,   5.60000,
,,,00.000010840000,   6.00000,
,,,00.000010880000,   6.00000,
,,,00.000010920000,   6.80000,
,,,00.000010960000,   6.80000,
,,,00.000011000000,   7.20000,
,,,00.000011040000,   7.60000,
,,,00.000011080000,   8.00000,
,,,00.000011120000,   8.40000,
,,,00.000011160000,   8.80000,
,,,00.000011200000,   9.20000,
,,,00.000011240000,   9.60000,
,,,00.000011280000,   9.60000,
,,,00.000011320000,  10.00000,
,,,00.000011360000,  10.40000,
,,,00.000011400000,  10.80000,
,,,00.000011440000,  11.20000,
,,,00.000011480000,  11.20000,
,,,00.000011520000,  11.60000,
,,,00.000011560000,  12.00000,
,,,00.000011600000,  12.40000,
,,,00.000011640000,  12.40000,
,,,00.000011680000,  12.80000,
,,,00.000011720000,  13.20000,
,,,00.000011760000,  13.20000,
,,,00.000011800000,  13.60000,
,,,00.000011840000,  13.60000,
,,,00.000011880000,  14.00000,
,,,00.000011920000,  14.40000,
,,,00.000011960000,  14.40000,
,,,00.000012000000,  14.80000,
,,,00.000012040000,  14.80000,
,,,00.000012080000,  15.20000,
,,,00.000012120000,  15.60000,
,,,00.000012160000,  15.60000,
,,,00.000012200000,  15.60000,
,,,00.000012240000,  16.00000,
,,,00.000012280000,  16.00000,
,,,00.000012320000,  16.40000,
,,,00.000012360000,  16.40000,
,,,00.000012400000,  16.40000,
,,,00.000012440000,  16.80000,
,,,00.000012480000,  16.80000,
,,,00.000012520000,  17.20000,
,,,00.000012560000,  17.20000,
,,,00.000012600000,  17.20000,
,,,00.000012640000,  17.60000,
,,,00.000012680000,  17.60000,
,,,00.000012720000,  17.60000,
,,,00.000012760000,  17.60000,
,,,00.000012800000,  18.00000,
,,,00.000012840000,  18.00000,
,,,00.000012880000,  18.00000,
,,,00.000012920000,  18.00000,
,,,00.000012960000,  18.00000,
,,,00.000013000000,  18.00000,
,,,00.000013040000,  18.40000,
,,,00.000013080000,  18.40000,
,,,00.000013120000,  18.40000,
,,,00.000013160000,  18.40000,
,,,00.000013200000,  18.40000,
,,,00.000013240000,  18.40000,
,,,00.000013280000,  18.40000,
,,,00.000013320000,  18.40000,
,,,00.000013360000,  18.40000,
,,,00.000013400000,  18.40000,
,,,00.000013440000,  18.40000,
,,,00.000013480000,  18.40000,
,,,00.000013520000,  18.40000,
,,,00.000013560000,  18.40000,
,,,00.000013600000,  18.40000,
,,,00.000013640000,  18.40000,
,,,00.000013680000,  18.00000,
,,,00.000013720000,  18.00000,
,,,00.000013760000,  18.00000,
,,,00.000013800000,  18.00000,
,,,00.000013840000,  18.00000,
,,,00.000013880000,  18.00000,
,,,00.000013920000,  17.60000,
,,,00.000013960000,  17.60000,
,,,00.000014000000,  17.60000,
,,,00.000014040000,  17.60000,
,,,00.000014080000,  17.20000,
,,,00.000014120000,  17.20000,
,,,00.000014160000,  17.20000,
,,,00.000014200000,  16.80000,
,,,00.000014240000,  16.80000,
,,,00.000014280000,  16.80000,
,,,00.000014320000,  16.40000,
,,,00.000014360000,  16.40000,
,,,00.000014400000,  16.40000,
,,,00.000014440000,  16.00000,
,,,00.000014480000,  16.00000,
,,,00.000014520000,  16.00000,
,,,00.000014560000,  15.60000,
,,,00.000014600000,  15.60000,
,,,00.000014640000,  15.20000,
,,,00.000014680000,  15.20000,
,,,00.000014720000,  14.80000,
,,,00.000014760000,  14.80000,
,,,00.000014800000,  14.40000,
,,,00.000014840000,  14.40000,
,,,00.000014880000,  14.00000,
,,,00.000014920000,  14.00000,
,,,00.000014960000,  13.60000,
,,,00.000015000000,  13.60000,
,,,00.000015040000,  13.20000,
,,,00.000015080000,  13.20000,
,,,00.000015120000,  12.80000,
,,,00.000015160000,  12.80000,
,,,00.000015200000,  12.40000,
,,,00.000015240000,  12.00000,
,,,00.000015280000,  12.00000,
,,,00.000015320000,  11.60000,
,,,00.000015360000,  11.20000,
,,,00.000015400000,  11.20000,
